GLMs for Car Insurance Pricing: Initial GLM Modelling
…
Our current aim is merely to get a feel for the models, so we will not pay too much attention to model assessment or validation. For starters, we have done little pruning of the data and have no created any sort of holdout set, and such a process could easily change our inferences!

Instead, we leave it there and instead turn our attention to modelling the size of the claims.

2.2 Modelling Claim Size

We turn our attention to modelling the size of the claim, given that a claim has occurred. We use the individual claim data for this, but will use variables from the policy table also. We are not modelling claims above EUR 25,000 so we exclude these data now.

claimdata_tbl <- claim_tbl %>%
    filter(claim_amount < 25000)

print(claimdata_tbl)

## # A tibble: 16,068 x 13
##    policy_id claim_amount exposure  power car_age driver_age
##        <chr>        <int>    <dbl> <fctr>   <int>      <int>
##  1     63987         1172     0.95      d       1         49
##  2    310037         1905     0.71      d       2         32
##  3    314463         1150     0.86      l       0         37
##  4    318713         1220     0.78      o      10         48
##  5    309380         7593     0.21      h       2         53
##  6    318738         1176     0.78      g       2         29
##  7    305914         1202     0.28      j       4         64
##  8    313314         1203     0.43      d       1         51
##  9    309238         1232     0.95      d       1         50
## 10    314567         1224     0.75      o      10         57
## # ... with 16,058 more rows, and 7 more variables: brand <fctr>, gas <fctr>,
## #   region <fctr>, density <int>, cat_driver_age <fctr>, cat_car_age <fctr>,
## #   cat_density <fctr>
…
